{
    "name": "drupal/packagist-signed",
    "homepage": "http://packagist-signed.example.org",
    "repositories": [
        {
            "name": "drupal/core-composer-scaffold",
            "type": "vcs",
            "url": "https://github.com/drupal/core-composer-scaffold"
        },
        {
            "name": "drupal/core-project-message",
            "type": "vcs",
            "url": "https://github.com/drupal/core-project-message"
        },
        {
            "name": "drupal/core",
            "type": "vcs",
            "url": "https://github.com/drupal/core"
        },
        {
            "name": "drupal/core-recommended",
            "type": "vcs",
            "url": "https://github.com/drupal/core-recommended"
        },
        {
            "name": "drupal/core-utility",
            "type": "vcs",
            "url": "https://github.com/drupal/core-utility"
        }
    ],
    "require-all": true,
    "archive": {
        "directory": "dist",
        "prefix-url": "http://packagist-signed.example.org"
    }
}
